…
```r
deserts
```

```
## # A tibble: 34,786 × 13
##    record_id month   day  year plot_id species_id sex   hindfoot_length weight
##        <dbl> <dbl> <dbl> <dbl>   <dbl> <chr>      <chr>           <dbl>  <dbl>
##  1         1     7    16  1977       2 NL         M                  32     NA
##  2         2     7    16  1977       3 NL         M                  33     NA
##  3         3     7    16  1977       2 DM         F                  37     NA
##  4         4     7    16  1977       7 DM         M                  36     NA
##  5         5     7    16  1977       3 DM         M                  35     NA
##  6         6     7    16  1977       1 PF         M                  14     NA
##  7         7     7    16  1977       2 PE         F                  NA     NA
##  8         8     7    16  1977       1 DM         M                  37     NA
##  9         9     7    16  1977       1 DM         F                  34     NA
## 10        10     7    16  1977       6 PF         F                  20     NA
## # … with 34,776 more rows, and 4 more variables: genus <chr>, species <chr>,
## #   taxa <chr>, plot_type <chr>
```
This data is tidy because each variable has its own column, each observation has its own row, and each value has its own cell. 

2. How many genera and species are represented in the data? What are the total number of observations? Which species is most/ least frequently sampled in the study?


```r
count(deserts, genus)
```

```
## # A tibble: 26 × 2
##    genus                n
##    <chr>            <int>
##  1 Ammodramus           2
##  2 Ammospermophilus   437
##  3 Amphispiza         303
##  4 Baiomys             46
##  5 Calamospiza         13
##  6 Callipepla          16
##  7 Campylorhynchus     50
##  8 Chaetodipus       6029
##  9 Cnemidophorus        2
## 10 Crotalus             2
## # … with 16 more rows
```
26 genera because there are 26 rows. 


```r
count(deserts, species)
```

```
## # A tibble: 40 × 2
##    species             n
##    <chr>           <int>
##  1 albigula         1252
##  2 audubonii          75
##  3 baileyi          2891
##  4 bilineata         303
##  5 brunneicapillus    50
##  6 chlorurus          39
##  7 clarki              1
##  8 eremicus         1299
##  9 flavus           1597
## 10 fulvescens         75
## # … with 30 more rows
```
40 species because there are 40 rows. 


```r
deserts %>% 
  count(species) %>% 
  arrange(n)
```

```
## # A tibble: 40 × 2
##    species          n
##    <chr>        <int>
##  1 clarki           1
##  2 scutalatus       1
##  3 tereticaudus     1
##  4 tigris           1
##  5 uniparens        1
##  6 viridis          1
##  7 leucophrys       2
##  8 savannarum       2
##  9 fuscus           5
## 10 undulatus        5
## # … with 30 more rows
```
The clarki, scutalatus, tereticaudus, tigris, uniparens, and viridis species are the least sampled. 


```r
deserts %>% 
  count(species) %>% 
  arrange(desc(n))
```

```
## # A tibble: 40 × 2
##    species          n
##    <chr>        <int>
##  1 merriami     10596
##  2 penicillatus  3123
##  3 ordii         3027
##  4 baileyi       2891
##  5 megalotis     2609
##  6 spectabilis   2504
##  7 torridus      2249
##  8 flavus        1597
##  9 eremicus      1299
## 10 albigula      1252
## # … with 30 more rows
```
…
