…
fisheries_tidy$catch <- as.numeric(fisheries_tidy$catch)
```

3. How many countries are represented in the data? Provide a count and list their names.

```r
fisheries %>%
  group_by(country) %>% 
  count(country)
```

```
## # A tibble: 204 × 2
## # Groups:   country [204]
##    country                 n
##    <fct>               <int>
##  1 Albania                67
##  2 Algeria                59
##  3 American Samoa         32
##  4 Angola                 88
##  5 Anguilla                3
##  6 Antigua and Barbuda    22
##  7 Argentina             140
##  8 Aruba                   5
##  9 Australia             301
## 10 Bahamas                14
## # … with 194 more rows
```
…
```r
fisheries %>% 
  select(country, isscaap_taxonomic_group, asfis_species_name, asfis_species_number)
```

```
## # A tibble: 17,692 × 4
##    country isscaap_taxonomic_group         asfis_species_name  asfis_species_nu…
##    <fct>   <chr>                           <fct>               <chr>            
##  1 Albania Sharks, rays, chimaeras         Squatinidae         10903XXXXX       
##  2 Albania Tunas, bonitos, billfishes      Sarda sarda         1750100101       
##  3 Albania Miscellaneous pelagic fishes    Sphyraena spp       17710001XX       
##  4 Albania Shrimps, prawns                 Aristeus antennatus 2280203101       
##  5 Albania Cods, hakes, haddocks           Micromesistius pou… 1480403301       
##  6 Albania Miscellaneous pelagic fishes    Pomatomus saltatrix 1702021301       
##  7 Albania Miscellaneous coastal fishes    Boops boops         1703926101       
##  8 Albania Shrimps, prawns                 Penaeus kerathurus  2280100117       
##  9 Albania Sharks, rays, chimaeras         Scyliorhinus spp    10801003XX       
## 10 Albania Squids, cuttlefishes, octopuses Sepia officinalis   3210200202       
## # … with 17,682 more rows
```

5. Based on the asfis_species_number, how many distinct fish species were caught as part of these data?

```r
fisheries %>% 
  select(asfis_species_number) %>%
  group_by(asfis_species_number) %>% 
  summarise(number_fish=n())
```

```
## # A tibble: 1,553 × 2
##    asfis_species_number number_fish
##    <chr>                      <int>
##  1 1020100101                     5
##  2 1020100201                     1
##  3 10201XXXXX                     2
##  4 1030300603                     1
##  5 10303XXXXX                     4
##  6 1050200201                     9
##  7 1050200301                     1
##  8 1050200502                     3
##  9 1060100301                     7
## 10 1060200501                     3
## # … with 1,543 more rows
```
…
```r
fisheries %>% 
  select(country, x2000) %>%
  group_by(country) %>%
  summarise(catches_per_country=n()) %>%
  arrange(desc(catches_per_country))
```

```
## # A tibble: 204 × 2
##    country                  catches_per_country
##    <fct>                                  <int>
##  1 Spain                                    915
##  2 Portugal                                 763
##  3 United States of America                 627
##  4 Korea, Republic of                       620
##  5 Japan                                    611
##  6 Russian Federation                       523
##  7 Un. Sov. Soc. Rep.                       515
##  8 France                                   489
##  9 United Kingdom                           362
## 10 Taiwan Province of China                 310
## # … with 194 more rows
```
…
```r
fisheries_tidy %>%
  filter(year>=1990 & year<=2000) %>%
  filter(asfis_species_name=="Sardina pilchardus") %>%
  group_by(country) %>%
  summarise(n_sardines=n_distinct(catch)) %>%
  arrange(desc(n_sardines))
```

```
## # A tibble: 37 × 2
##    country            n_sardines
##    <fct>                   <int>
##  1 Morocco                    22
##  2 France                     20
##  3 Spain                      20
##  4 Portugal                   18
##  5 Denmark                    11
##  6 Greece                     11
##  7 Italy                      10
##  8 Netherlands                10
##  9 Russian Federation         10
## 10 Ukraine                    10
## # … with 27 more rows
```
…
9. Which species had the highest catch total between 2008-2012? (hint: Osteichthyes is not a species)

```r
fisheries_tidy %>% 
  filter(year>=2008&year<=2012) %>%
  group_by(asfis_species_name) %>%
  summarize(catch_total=sum(catch, na.rm = T)) %>%
  arrange(desc(catch_total))
```

```
## # A tibble: 1,472 × 2
##    asfis_species_name    catch_total
##    <fct>                       <dbl>
##  1 Osteichthyes               107808
##  2 Theragra chalcogramma       41075
##  3 Engraulis ringens           35523
##  4 Katsuwonus pelamis          32153
##  5 Trichiurus lepturus         30400
##  6 Clupea harengus             28527
##  7 Thunnus albacares           20119
##  8 Scomber japonicus           14723
##  9 Gadus morhua                13253
## 10 Thunnus alalunga            12019
## # … with 1,462 more rows
```
The Theragra chalcogramma had the highest catch total between 2008-2012. 

10. Use the data to do at least one analysis of your choice.


```r
fisheries_tidy %>% 
  select(country, asfis_species_name) %>%
  count(asfis_species_name)
```

```
## # A tibble: 1,546 × 2
##    asfis_species_name            n
##    <fct>                     <int>
##  1 Ablennes hians               28
##  2 Abramis brama               389
##  3 Abramis spp                  67
##  4 Acanthistius brasilianus     89
##  5 Acanthocybium solandri     1216
##  6 Acanthopagrus berda          22
##  7 Acanthopagrus bifasciatus    51
##  8 Acanthopagrus latus          64
##  9 Acanthopagrus schlegeli      24
## 10 Acanthuridae                296
## # … with 1,536 more rows
```
…
