…
```r
gapminder %>%
  select(country, year, pop) %>% 
  filter(year=="1952"| year=="2007") %>%
  pivot_wider(names_from = "year",
              names_prefix = "yr_",
              values_from = "pop")
```

```
## # A tibble: 142 × 3
##    country      yr_1952   yr_2007
##    <fct>          <int>     <int>
##  1 Afghanistan  8425333  31889923
##  2 Albania      1282697   3600523
##  3 Algeria      9279525  33333216
##  4 Angola       4232095  12420476
##  5 Argentina   17876956  40301927
##  6 Australia    8691212  20434176
##  7 Austria      6927772   8199783
##  8 Bahrain       120447    708573
##  9 Bangladesh  46886859 150448339
## 10 Belgium      8730405  10392226
## # … with 132 more rows
```
…
