…
```r
college
```

```
## # A tibble: 341 × 10
##    INSTNM      CITY  STABBR ZIP   ADM_RATE SAT_AVG PCIP26 COSTT4_A C150_4_POOLED
##    <chr>       <chr> <chr>  <chr>    <dbl>   <dbl>  <dbl>    <dbl>         <dbl>
##  1 Grossmont … El C… CA     9202…       NA      NA 0.0016     7956        NA    
##  2 College of… Visa… CA     9327…       NA      NA 0.0066     8109        NA    
##  3 College of… San … CA     9440…       NA      NA 0.0038     8278        NA    
##  4 Ventura Co… Vent… CA     9300…       NA      NA 0.0035     8407        NA    
##  5 Oxnard Col… Oxna… CA     9303…       NA      NA 0.0085     8516        NA    
##  6 Moorpark C… Moor… CA     9302…       NA      NA 0.0151     8577        NA    
##  7 Skyline Co… San … CA     9406…       NA      NA 0          8580         0.233
##  8 Glendale C… Glen… CA     9120…       NA      NA 0.002      9181        NA    
##  9 Citrus Col… Glen… CA     9174…       NA      NA 0.0021     9281        NA    
## 10 Fresno Cit… Fres… CA     93741       NA      NA 0.0324     9370        NA    
## # … with 331 more rows, and 1 more variable: PFTFTUG1_EF <dbl>
```
…
1. Use your preferred function(s) to have a look at the data and get an idea of its structure. Make sure you summarize NA's and determine whether or not the data are tidy. You may also consider dealing with any naming issues.


```r
college
```

```
## # A tibble: 341 × 10
##    INSTNM      CITY  STABBR ZIP   ADM_RATE SAT_AVG PCIP26 COSTT4_A C150_4_POOLED
##    <chr>       <chr> <chr>  <chr>    <dbl>   <dbl>  <dbl>    <dbl>         <dbl>
##  1 Grossmont … El C… CA     9202…       NA      NA 0.0016     7956        NA    
##  2 College of… Visa… CA     9327…       NA      NA 0.0066     8109        NA    
##  3 College of… San … CA     9440…       NA      NA 0.0038     8278        NA    
##  4 Ventura Co… Vent… CA     9300…       NA      NA 0.0035     8407        NA    
##  5 Oxnard Col… Oxna… CA     9303…       NA      NA 0.0085     8516        NA    
##  6 Moorpark C… Moor… CA     9302…       NA      NA 0.0151     8577        NA    
##  7 Skyline Co… San … CA     9406…       NA      NA 0          8580         0.233
##  8 Glendale C… Glen… CA     9120…       NA      NA 0.002      9181        NA    
##  9 Citrus Col… Glen… CA     9174…       NA      NA 0.0021     9281        NA    
## 10 Fresno Cit… Fres… CA     93741       NA      NA 0.0324     9370        NA    
## # … with 331 more rows, and 1 more variable: PFTFTUG1_EF <dbl>
```
…
2. Which cities in California have the highest number of colleges?

```r
college_by_city <- college %>% 
  group_by(city) %>% 
  summarise(n_colleges=n_distinct(instnm)) %>% 
  arrange(desc(n_colleges))
college_by_city
```

```
## # A tibble: 161 × 2
##    city          n_colleges
##    <chr>              <int>
##  1 Los Angeles           24
##  2 San Diego             18
##  3 San Francisco         15
##  4 Sacramento            10
##  5 Berkeley               9
##  6 Oakland                9
##  7 Claremont              7
##  8 Pasadena               6
##  9 Fresno                 5
## 10 Irvine                 5
## # … with 151 more rows
```
…
```r
college %>% 
  select(instnm, city, stabbr, costt4_a) %>% 
  group_by(city) %>% 
  summarise(mean_cost=mean(costt4_a, na.rm=T)) %>% 
  arrange(desc(mean_cost))
```

```
## # A tibble: 161 × 2
##    city                mean_cost
##    <chr>                   <dbl>
##  1 Claremont               66498
##  2 Malibu                  66152
##  3 Valencia                64686
##  4 Orange                  64501
##  5 Redlands                61542
##  6 Moraga                  61095
##  7 Atherton                56035
##  8 Thousand Oaks           54373
##  9 Rancho Palos Verdes     50758
## 10 La Verne                50603
## # … with 151 more rows
```
…
```
##  [1] "instnm"        "city"          "stabbr"        "zip"          
##  [5] "adm_rate"      "sat_avg"       "pcip26"        "costt4_a"     
##  [9] "c150_4_pooled" "pftftug1_ef"
```


```r
college %>% 
  select(instnm, pcip26) %>% 
  arrange(desc(pcip26))
```

```
## # A tibble: 341 × 2
##    instnm                                            pcip26
##    <chr>                                              <dbl>
##  1 University of California-San Diego                 0.216
##  2 University of California-Davis                     0.198
##  3 University of California-Santa Cruz                0.193
##  4 Pomona College                                     0.171
##  5 University of California-Los Angeles               0.155
##  6 Scripps College                                    0.152
##  7 University of California-Riverside                 0.149
##  8 Occidental College                                 0.137
##  9 Southern California University of Health Sciences  0.136
## 10 Notre Dame de Namur University                     0.135
## # … with 331 more rows
```
…
