…
```r
grizzly
```

```
## # A tibble: 494 × 3
##    bear.id longitude latitude
##      <dbl>     <dbl>    <dbl>
##  1       7     -149.     62.7
##  2      57     -153.     58.4
##  3      69     -145.     62.4
##  4      75     -153.     59.9
##  5     104     -143.     61.1
##  6     108     -150.     62.9
##  7     115     -152.     68.0
##  8     116     -147.     62.6
##  9     125     -157.     60.2
## 10     135     -156.     58.9
## # … with 484 more rows
```
…
```r
wolves
```

```
## # A tibble: 1,986 × 23
##    pop     year age.cat sex   color   lat  long habitat human pop.density
##    <chr>  <dbl> <chr>   <chr> <chr> <dbl> <dbl>   <dbl> <dbl>       <dbl>
##  1 AK.PEN  2006 S       F     G      57.0 -158.    254.  10.4           8
##  2 AK.PEN  2006 S       M     G      57.0 -158.    254.  10.4           8
##  3 AK.PEN  2006 A       F     G      57.0 -158.    254.  10.4           8
##  4 AK.PEN  2006 S       M     B      57.0 -158.    254.  10.4           8
##  5 AK.PEN  2006 A       M     B      57.0 -158.    254.  10.4           8
##  6 AK.PEN  2006 A       M     G      57.0 -158.    254.  10.4           8
##  7 AK.PEN  2006 A       F     G      57.0 -158.    254.  10.4           8
##  8 AK.PEN  2006 P       M     G      57.0 -158.    254.  10.4           8
##  9 AK.PEN  2006 S       F     G      57.0 -158.    254.  10.4           8
## 10 AK.PEN  2006 P       M     G      57.0 -158.    254.  10.4           8
## # … with 1,976 more rows, and 13 more variables: pack.size <dbl>,
## #   standard.habitat <dbl>, standard.human <dbl>, standard.pop <dbl>,
## #   standard.packsize <dbl>, standard.latitude <dbl>, standard.longitude <dbl>,
## #   cav.binary <dbl>, cdv.binary <dbl>, cpv.binary <dbl>, chv.binary <dbl>,
## #   neo.binary <dbl>, toxo.binary <dbl>
```
…
```r
low_wolves <- wolves %>% 
  filter(pop %in% c("GNTP", "MEXICAN", "MI", "MT", "SNF", "YNP"))
low_wolves
```

```
## # A tibble: 1,109 × 23
##    pop      year age.cat sex   color   lat  long habitat human pop.density
##    <chr>   <dbl> <chr>   <chr> <chr> <dbl> <dbl>   <dbl> <dbl>       <dbl>
##  1 MEXICAN  2006 P       F     G      33.9 -109.  11861. 2788.        3.99
##  2 MEXICAN  2006 P       F     G      33.9 -109.  11861. 2788.        3.99
##  3 MEXICAN  2006 P       F     G      33.9 -109.  11861. 2788.        3.99
##  4 MEXICAN  2006 P       F     G      33.9 -109.  11861. 2788.        3.99
##  5 MEXICAN  2006 P       F     G      33.9 -109.  11861. 2788.        3.99
##  6 MEXICAN  2006 P       M     G      33.9 -109.  11861. 2788.        3.99
##  7 MEXICAN  2006 P       M     G      33.9 -109.  11861. 2788.        3.99
##  8 MEXICAN  2006 P       M     G      33.9 -109.  11861. 2788.        3.99
##  9 MEXICAN  2006 P       M     G      33.9 -109.  11861. 2788.        3.99
## 10 MEXICAN  2006 P       M     G      33.9 -109.  11861. 2788.        3.99
## # … with 1,099 more rows, and 13 more variables: pack.size <dbl>,
## #   standard.habitat <dbl>, standard.human <dbl>, standard.pop <dbl>,
## #   standard.packsize <dbl>, standard.latitude <dbl>, standard.longitude <dbl>,
## #   cav.binary <dbl>, cdv.binary <dbl>, cpv.binary <dbl>, chv.binary <dbl>,
## #   neo.binary <dbl>, toxo.binary <dbl>
```
…
