…
**7. Make two new data frames, one which is restricted to carnivores and another that is restricted to herbivores.**  


```r
carni <- filter(homerange, trophic.guild == "carnivore")
carni
```

```
## # A tibble: 342 × 24
##    taxon   common.name   class   order  family genus species primarymethod N    
##    <fct>   <chr>         <chr>   <fct>  <chr>  <chr> <chr>   <chr>         <chr>
##  1 lake f… american eel  actino… angui… angui… angu… rostra… telemetry     16   
##  2 river … blacktail re… actino… cypri… catos… moxo… poecil… mark-recaptu… <NA> 
##  3 river … central ston… actino… cypri… cypri… camp… anomal… mark-recaptu… 20   
##  4 river … rosyside dace actino… cypri… cypri… clin… fundul… mark-recaptu… 26   
##  5 river … longnose dace actino… cypri… cypri… rhin… catara… mark-recaptu… 17   
##  6 river … muskellunge   actino… esoci… esoci… esox  masqui… telemetry     5    
##  7 marine… pollack       actino… gadif… gadid… poll… pollac… telemetry     2    
##  8 marine… saithe        actino… gadif… gadid… poll… virens  telemetry     2    
##  9 marine… giant treval… actino… perci… caran… cara… ignobi… telemetry     4    
## 10 lake f… rock bass     actino… perci… centr… ambl… rupest… mark-recaptu… 16   
## # … with 332 more rows, and 15 more variables: mean.mass.g <dbl>,
## #   log10.mass <dbl>, alternative.mass.reference <chr>, mean.hra.m2 <dbl>,
## #   log10.hra <dbl>, hra.reference <chr>, realm <chr>, thermoregulation <chr>,
## #   locomotion <chr>, trophic.guild <chr>, dimension <dbl>, preymass <dbl>,
## #   log10.preymass <dbl>, PPMR <dbl>, prey.size.reference <chr>
```

```r
herbi <- filter(homerange, trophic.guild == "herbivore")
herbi
```

```
## # A tibble: 227 × 24
##    taxon  common.name   class   order  family  genus species primarymethod N    
##    <fct>  <chr>         <chr>   <fct>  <chr>   <chr> <chr>   <chr>         <chr>
##  1 marin… lined surgeo… actino… perci… acanth… acan… lineat… direct obser… <NA> 
##  2 marin… orangespine … actino… perci… acanth… naso  litura… telemetry     8    
##  3 marin… bluespine un… actino… perci… acanth… naso  unicor… telemetry     7    
##  4 marin… redlip blenny actino… perci… blenni… ophi… atlant… direct obser… 20   
##  5 marin… bermuda chub  actino… perci… kyphos… kyph… sectat… telemetry     11   
##  6 marin… cherubfish    actino… perci… pomaca… cent… argi    direct obser… <NA> 
##  7 marin… damselfish    actino… perci… pomace… chro… chromis direct obser… <NA> 
##  8 marin… twinspot dam… actino… perci… pomace… chry… biocel… direct obser… 18   
##  9 marin… wards damsel  actino… perci… pomace… poma… wardi   direct obser… <NA> 
## 10 marin… australian g… actino… perci… pomace… steg… apical… direct obser… <NA> 
## # … with 217 more rows, and 15 more variables: mean.mass.g <dbl>,
## #   log10.mass <dbl>, alternative.mass.reference <chr>, mean.hra.m2 <dbl>,
## #   log10.hra <dbl>, hra.reference <chr>, realm <chr>, thermoregulation <chr>,
## #   locomotion <chr>, trophic.guild <chr>, dimension <dbl>, preymass <dbl>,
## #   log10.preymass <dbl>, PPMR <dbl>, prey.size.reference <chr>
```
…
